4 El ritual del aprendizaje automático (Parte 1) | Herramientas de análisis espacial en R
…
Todo parece estar en orden, ahora vamos a hacer una última limpieza de nuestros datos. Para empezar, vamos a quedarnos con aquellos puntos que están dentro de la Ciudad de Córdoba y las que tengan un valor de propiedad total mayor a cero. También vamos a quedarnos con los casos en los cuales la superficie total y la cubierta es mayor a cero, ya que se trata de algún error en los datos

cordobaSF <- cordobaSF %>%
             filter(cordobaCapital==TRUE & property.price>0 & property.surface_covered>0 & property.surface_total> 0)

Ahora vayamos a un tema muy importante: los datos faltantes. Los datos faltantes son siempre un tema que requiere una particular atención. Algunos modelos de aprendizaje automático/estadístico no tienen ningún problema para trabajar con datos faltantes en las variables explicativas, pero otros sí. Más allá de esto, precisamos saber cuáles variables tienen datos faltantes, particularmente aquellas variables que son cuantitativas.

Podemos aprovechar esta oportunidad para aprander algo nuevo. Si map() nos devuelve una lista, map_dfr() nos devuelve un data.frame, lo cual es muy bueno para poder aplicar otras funciones como pivot_longer() o arrange(). De hecho, lo que hacemos en este ejemplo es justamente esto: vamos columna por columna calculando la cantidad de casos que tienen casos faltantes, después pasamos todo a formato largo y ordenamos de manera descendiente por “n_faltantes”, una columna que nos dice la cantidad de faltantes para cada una de las variables.

cordobaSF %>% 
  map_dfr(function(x) sum(is.na(x))) %>%
  pivot_longer(cols = 1:ncol(.),values_to="n_faltantes") %>%
  arrange(desc(n_faltantes))

## # A tibble: 31 x 2
##    name                  n_faltantes
##    <chr>                       <int>
##  1 property.bedrooms            9032
##  2 property.price_period        5368
##  3 property.rooms               3897
##  4 property.bathrooms            927
##  5 type                            0
##  6 type_i18n                       0
##  7 country                         0
##  8 id                              0
##  9 start_date                      0
## 10 end_date                        0
## # ... with 21 more rows
…
